gotermname,stat,padj
GO:0008150,-10.,0.10
GO:0008152,-8.0,0.10
GO:0044281,-6.0,0.05
GO:0044238,-4.0,0.10
GO:0071704,-2.0,0.10
GO:0009058,0.00,0.10
GO:0005975,2.00,0.05
GO:1901576,4.00,0.10
GO:0005996,6.00,0.05
GO:0044283,8.00,0.10
GO:0016051,10.0,0.01
GO:0019318,12.0,0.01
GO:0046364,14.0,0.01
GO:0019319,16.0,0.01
